%YAML 1.1
%TAG !u! tag:unity3d.com,2011:
--- !u!114 &11400000
MonoBehaviour:
  m_ObjectHideFlags: 0
  m_CorrespondingSourceObject: {fileID: 0}
  m_PrefabInstance: {fileID: 0}
  m_PrefabAsset: {fileID: 0}
  m_GameObject: {fileID: 0}
  m_Enabled: 1
  m_EditorHideFlags: 0
  m_Script: {fileID: 11500000, guid: ada825255f0166f4c9c8124a0f1e2448, type: 3}
  m_Name: RPG_ITEM_Silver
  m_EditorClassIdentifier: 
  ID: 70
  _name: Silver
  _fileName: RPG_ITEM_Silver
  displayName: "\u0421\u0435\u0440\u0435\u0431\u0440\u044F\u043D\u044B\u0439 \u0441\u043B\u0438\u0442\u043E\u043A"
  icon: {fileID: 21300000, guid: f68935f4689fcd041816dcec5da2f548, type: 3}
  equipmentSlot: 
  itemType: RESOURCE
  weaponType: 
  armorType: 
  slotType: 
  rarity: Uncommon
  itemModelName: 
  weaponModel: {fileID: 0}
  modelMaterial: {fileID: 0}
  armorMesh: {fileID: 0}
  armorPieceType: 0
  weaponPositionDatas: []
  showWeaponPositionData: 0
  AttackSpeed: 0
  minDamage: 0
  maxDamage: 0
  autoAttackAbilityID: -1
  autoAttackAbilityREF: {fileID: 0}
  stats: []
  randomStats: []
  randomStatsMax: 0
  sellPrice: 5
  sellCurrencyID: 0
  sellCurrencyREF: {fileID: 0}
  buyPrice: 0
  buyCurrencyID: -1
  buyCurrencyREF: {fileID: 0}
  stackLimit: 20
  description: 
  dropInWorld: 0
  itemWorldModel: {fileID: 0}
  durationInWorld: 60
  worldInteractableLayer: 0
  enchantmentREF: {fileID: 0}
  enchantmentID: -1
  isEnchantmentConsumed: 0
  sockets: []
  gemData:
    socketType: 
    gemStats: []
  useRequirements: []
  onUseActions: []
  actionAbilities: []
