%YAML 1.1
%TAG !u! tag:unity3d.com,2011:
--- !u!114 &11400000
MonoBehaviour:
  m_ObjectHideFlags: 0
  m_CorrespondingSourceObject: {fileID: 0}
  m_PrefabInstance: {fileID: 0}
  m_PrefabAsset: {fileID: 0}
  m_GameObject: {fileID: 0}
  m_Enabled: 1
  m_EditorHideFlags: 0
  m_Script: {fileID: -82291597, guid: b756cd77d40dc61409e6c5eb9d0d808d, type: 3}
  m_Name: SceneFusionConfig
  m_EditorClassIdentifier: 
  ShowGettingStartedScreen: 0
  UI:
    ShowOnlineIndicator: 1
    ShowCollaboratorCamera: 1
    ShowCollaboratorTerrainBrush: 1
    OnlineStatusOffset: {x: 0, y: 0}
    HierarchyIconOffset: 0
  Network:
    Timeout: 30
    ReceiveBufferSize: 1024
    OverrideServerPort: 0
  Debug: 1
  LastVersion: 1.9.3
  m_projectId: -1
