%YAML 1.1
%TAG !u! tag:unity3d.com,2011:
--- !u!114 &11400000
MonoBehaviour:
  m_ObjectHideFlags: 0
  m_CorrespondingSourceObject: {fileID: 0}
  m_PrefabInstance: {fileID: 0}
  m_PrefabAsset: {fileID: 0}
  m_GameObject: {fileID: 0}
  m_Enabled: 1
  m_EditorHideFlags: 0
  m_Script: {fileID: 11500000, guid: dd833f50e74631042ae5eac5ab830020, type: 3}
  m_Name: RPG_GAME_SCENE_WORLD
  m_EditorClassIdentifier: 
  ID: 1
  _name: WORLD
  _fileName: RPG_GAME_SCENE_WORLD
  displayName: WORLD
  description: 
  loadingBG: {fileID: 21300000, guid: 7be8187e4fa3ee94bae0f5eee5314c31, type: 3}
  minimapImage: {fileID: 0}
  mapBounds:
    m_Center: {x: 0, y: 0, z: 0}
    m_Extent: {x: 0, y: 0, z: 0}
  mapSize: {x: 4096, y: 4096}
  startPositionID: 1
  startPositionREF: {fileID: 0}
  isProceduralScene: 0
  SpawnPointName: 
  regions: []
