%YAML 1.1
%TAG !u! tag:unity3d.com,2011:
--- !u!114 &11400000
MonoBehaviour:
  m_ObjectHideFlags: 0
  m_CorrespondingSourceObject: {fileID: 0}
  m_PrefabInstance: {fileID: 0}
  m_PrefabAsset: {fileID: 0}
  m_GameObject: {fileID: 0}
  m_Enabled: 1
  m_EditorHideFlags: 0
  m_Script: {fileID: 11500000, guid: 2a901e526cf4ee148b34268e943e9d7d, type: 3}
  m_Name: RPG_TALENT_TREE_Hunter
  m_EditorClassIdentifier: 
  ID: 1
  _name: Hunter
  displayName: Talents
  _fileName: RPG_TALENT_TREE_Hunter
  icon: {fileID: 21300000, guid: b123bdad4f47a734c80135e456f2d162, type: 3}
  TiersAmount: 10
  treePointAcceptedID: 2
  treePointAcceptedREF: {fileID: 0}
  nodeList:
  - nodeType: 0
    _name: 
    abilityID: 9
    abilityREF: {fileID: 11400000, guid: 2825befc3b1ae2c499a3e9dd8bdfeccf, type: 2}
    recipeID: -1
    recipeREF: {fileID: 0}
    resourceNodeID: -1
    resourceNodeREF: {fileID: 0}
    bonusID: -1
    bonusREF: {fileID: 0}
    Tier: 2
    Row: 1
    requirements: []
  - nodeType: 0
    _name: 
    abilityID: 19
    abilityREF: {fileID: 11400000, guid: db6f649d6b400324abf51ed823287524, type: 2}
    recipeID: -1
    recipeREF: {fileID: 0}
    resourceNodeID: -1
    resourceNodeREF: {fileID: 0}
    bonusID: -1
    bonusREF: {fileID: 0}
    Tier: 4
    Row: 1
    requirements:
    - requirementType: 4
      pointSpentValue: 0
      classRequiredID: -1
      classRequiredREF: {fileID: 0}
      classLevelValue: 0
      itemRequiredID: -1
      itemRequiredREF: {fileID: 0}
      itemRequiredCount: 0
      consumeItem: 0
      skillRequiredID: -1
      skillRequiredREF: {fileID: 0}
      skillLevelValue: 0
      bonusRequiredID: -1
      bonusRequiredREF: {fileID: 0}
      abilityRequiredID: 9
      abilityRequiredREF: {fileID: 11400000, guid: 2825befc3b1ae2c499a3e9dd8bdfeccf, type: 2}
      craftingRecipeRequiredID: -1
      recipeRequiredREF: {fileID: 0}
      resourceNodeRequiredID: -1
      resourceNodeRequiredREF: {fileID: 0}
      raceRequiredID: -1
      raceRequiredREF: {fileID: 0}
      questRequiredID: -1
      questRequiredREF: {fileID: 0}
      questStateRequired: 0
      npcRequiredID: -1
      npcRequiredREF: {fileID: 0}
      npcKillsRequired: 0
      weaponTemplateRequiredID: -1
      weaponTemplateRequiredREF: {fileID: 0}
      weaponTemplateLevelValue: 0
      textNodeREF: {fileID: 0}
      weaponRequired: 
  - nodeType: 0
    _name: 
    abilityID: 10
    abilityREF: {fileID: 11400000, guid: ff4ea31cf78ab1144a06d081a3c5caa3, type: 2}
    recipeID: -1
    recipeREF: {fileID: 0}
    resourceNodeID: -1
    resourceNodeREF: {fileID: 0}
    bonusID: -1
    bonusREF: {fileID: 0}
    Tier: 1
    Row: 3
    requirements: []
  - nodeType: 0
    _name: 
    abilityID: 15
    abilityREF: {fileID: 11400000, guid: 9032adc767c008f42834230c4fcff354, type: 2}
    recipeID: -1
    recipeREF: {fileID: 0}
    resourceNodeID: -1
    resourceNodeREF: {fileID: 0}
    bonusID: -1
    bonusREF: {fileID: 0}
    Tier: 6
    Row: 3
    requirements:
    - requirementType: 4
      pointSpentValue: 0
      classRequiredID: -1
      classRequiredREF: {fileID: 0}
      classLevelValue: 0
      itemRequiredID: -1
      itemRequiredREF: {fileID: 0}
      itemRequiredCount: 0
      consumeItem: 0
      skillRequiredID: -1
      skillRequiredREF: {fileID: 0}
      skillLevelValue: 0
      bonusRequiredID: -1
      bonusRequiredREF: {fileID: 0}
      abilityRequiredID: 10
      abilityRequiredREF: {fileID: 11400000, guid: ff4ea31cf78ab1144a06d081a3c5caa3, type: 2}
      craftingRecipeRequiredID: -1
      recipeRequiredREF: {fileID: 0}
      resourceNodeRequiredID: -1
      resourceNodeRequiredREF: {fileID: 0}
      raceRequiredID: -1
      raceRequiredREF: {fileID: 0}
      questRequiredID: -1
      questRequiredREF: {fileID: 0}
      questStateRequired: 0
      npcRequiredID: -1
      npcRequiredREF: {fileID: 0}
      npcKillsRequired: 0
      weaponTemplateRequiredID: -1
      weaponTemplateRequiredREF: {fileID: 0}
      weaponTemplateLevelValue: 0
      textNodeREF: {fileID: 0}
      weaponRequired: 
  - nodeType: 0
    _name: 
    abilityID: 12
    abilityREF: {fileID: 11400000, guid: 76c0cb421e8b89c4ca6c2dac7b8ec00b, type: 2}
    recipeID: -1
    recipeREF: {fileID: 0}
    resourceNodeID: -1
    resourceNodeREF: {fileID: 0}
    bonusID: -1
    bonusREF: {fileID: 0}
    Tier: 9
    Row: 4
    requirements:
    - requirementType: 4
      pointSpentValue: 0
      classRequiredID: -1
      classRequiredREF: {fileID: 0}
      classLevelValue: 0
      itemRequiredID: -1
      itemRequiredREF: {fileID: 0}
      itemRequiredCount: 0
      consumeItem: 0
      skillRequiredID: -1
      skillRequiredREF: {fileID: 0}
      skillLevelValue: 0
      bonusRequiredID: -1
      bonusRequiredREF: {fileID: 0}
      abilityRequiredID: 10
      abilityRequiredREF: {fileID: 11400000, guid: ff4ea31cf78ab1144a06d081a3c5caa3, type: 2}
      craftingRecipeRequiredID: -1
      recipeRequiredREF: {fileID: 0}
      resourceNodeRequiredID: -1
      resourceNodeRequiredREF: {fileID: 0}
      raceRequiredID: -1
      raceRequiredREF: {fileID: 0}
      questRequiredID: -1
      questRequiredREF: {fileID: 0}
      questStateRequired: 0
      npcRequiredID: -1
      npcRequiredREF: {fileID: 0}
      npcKillsRequired: 0
      weaponTemplateRequiredID: -1
      weaponTemplateRequiredREF: {fileID: 0}
      weaponTemplateLevelValue: 0
      textNodeREF: {fileID: 0}
      weaponRequired: 
  - nodeType: 0
    _name: 
    abilityID: 13
    abilityREF: {fileID: 11400000, guid: 5a30afe5e2358804aa6014ce4e79a311, type: 2}
    recipeID: -1
    recipeREF: {fileID: 0}
    resourceNodeID: -1
    resourceNodeREF: {fileID: 0}
    bonusID: -1
    bonusREF: {fileID: 0}
    Tier: 9
    Row: 2
    requirements:
    - requirementType: 4
      pointSpentValue: 0
      classRequiredID: -1
      classRequiredREF: {fileID: 0}
      classLevelValue: 0
      itemRequiredID: -1
      itemRequiredREF: {fileID: 0}
      itemRequiredCount: 0
      consumeItem: 0
      skillRequiredID: -1
      skillRequiredREF: {fileID: 0}
      skillLevelValue: 0
      bonusRequiredID: -1
      bonusRequiredREF: {fileID: 0}
      abilityRequiredID: 10
      abilityRequiredREF: {fileID: 11400000, guid: ff4ea31cf78ab1144a06d081a3c5caa3, type: 2}
      craftingRecipeRequiredID: -1
      recipeRequiredREF: {fileID: 0}
      resourceNodeRequiredID: -1
      resourceNodeRequiredREF: {fileID: 0}
      raceRequiredID: -1
      raceRequiredREF: {fileID: 0}
      questRequiredID: -1
      questRequiredREF: {fileID: 0}
      questStateRequired: 0
      npcRequiredID: -1
      npcRequiredREF: {fileID: 0}
      npcKillsRequired: 0
      weaponTemplateRequiredID: -1
      weaponTemplateRequiredREF: {fileID: 0}
      weaponTemplateLevelValue: 0
      textNodeREF: {fileID: 0}
      weaponRequired: 
  - nodeType: 0
    _name: 
    abilityID: 18
    abilityREF: {fileID: 11400000, guid: 5bec6ae97cc97274e9515e0d79cb1d08, type: 2}
    recipeID: -1
    recipeREF: {fileID: 0}
    resourceNodeID: -1
    resourceNodeREF: {fileID: 0}
    bonusID: -1
    bonusREF: {fileID: 0}
    Tier: 6
    Row: 1
    requirements:
    - requirementType: 4
      pointSpentValue: 0
      classRequiredID: -1
      classRequiredREF: {fileID: 0}
      classLevelValue: 0
      itemRequiredID: -1
      itemRequiredREF: {fileID: 0}
      itemRequiredCount: 0
      consumeItem: 0
      skillRequiredID: -1
      skillRequiredREF: {fileID: 0}
      skillLevelValue: 0
      bonusRequiredID: -1
      bonusRequiredREF: {fileID: 0}
      abilityRequiredID: 19
      abilityRequiredREF: {fileID: 11400000, guid: db6f649d6b400324abf51ed823287524, type: 2}
      craftingRecipeRequiredID: -1
      recipeRequiredREF: {fileID: 0}
      resourceNodeRequiredID: -1
      resourceNodeRequiredREF: {fileID: 0}
      raceRequiredID: -1
      raceRequiredREF: {fileID: 0}
      questRequiredID: -1
      questRequiredREF: {fileID: 0}
      questStateRequired: 0
      npcRequiredID: -1
      npcRequiredREF: {fileID: 0}
      npcKillsRequired: 0
      weaponTemplateRequiredID: -1
      weaponTemplateRequiredREF: {fileID: 0}
      weaponTemplateLevelValue: 0
      textNodeREF: {fileID: 0}
      weaponRequired: 
  - nodeType: 0
    _name: 
    abilityID: 17
    abilityREF: {fileID: 11400000, guid: c71939135bbf26d438a3a38c711b0f03, type: 2}
    recipeID: -1
    recipeREF: {fileID: 0}
    resourceNodeID: -1
    resourceNodeREF: {fileID: 0}
    bonusID: -1
    bonusREF: {fileID: 0}
    Tier: 8
    Row: 1
    requirements:
    - requirementType: 4
      pointSpentValue: 0
      classRequiredID: -1
      classRequiredREF: {fileID: 0}
      classLevelValue: 0
      itemRequiredID: -1
      itemRequiredREF: {fileID: 0}
      itemRequiredCount: 0
      consumeItem: 0
      skillRequiredID: -1
      skillRequiredREF: {fileID: 0}
      skillLevelValue: 0
      bonusRequiredID: -1
      bonusRequiredREF: {fileID: 0}
      abilityRequiredID: 18
      abilityRequiredREF: {fileID: 11400000, guid: 5bec6ae97cc97274e9515e0d79cb1d08, type: 2}
      craftingRecipeRequiredID: -1
      recipeRequiredREF: {fileID: 0}
      resourceNodeRequiredID: -1
      resourceNodeRequiredREF: {fileID: 0}
      raceRequiredID: -1
      raceRequiredREF: {fileID: 0}
      questRequiredID: -1
      questRequiredREF: {fileID: 0}
      questStateRequired: 0
      npcRequiredID: -1
      npcRequiredREF: {fileID: 0}
      npcKillsRequired: 0
      weaponTemplateRequiredID: -1
      weaponTemplateRequiredREF: {fileID: 0}
      weaponTemplateLevelValue: 0
      textNodeREF: {fileID: 0}
      weaponRequired: 
  - nodeType: 3
    _name: 
    abilityID: -1
    abilityREF: {fileID: 0}
    recipeID: -1
    recipeREF: {fileID: 0}
    resourceNodeID: -1
    resourceNodeREF: {fileID: 0}
    bonusID: 3
    bonusREF: {fileID: 11400000, guid: e3a3cc7fb8b971844acadc2babeff158, type: 2}
    Tier: 3
    Row: 5
    requirements: []
  - nodeType: 3
    _name: 
    abilityID: -1
    abilityREF: {fileID: 0}
    recipeID: -1
    recipeREF: {fileID: 0}
    resourceNodeID: -1
    resourceNodeREF: {fileID: 0}
    bonusID: 2
    bonusREF: {fileID: 11400000, guid: e828d6dfd79a2224fabf0e833b1b0ab4, type: 2}
    Tier: 6
    Row: 5
    requirements: []
  - nodeType: 0
    _name: 
    abilityID: 46
    abilityREF: {fileID: 11400000, guid: 687d3daa3ab6add43b7ac2fffc766f92, type: 2}
    recipeID: -1
    recipeREF: {fileID: 0}
    resourceNodeID: -1
    resourceNodeREF: {fileID: 0}
    bonusID: -1
    bonusREF: {fileID: 0}
    Tier: 1
    Row: 2
    requirements: []
